SFC1018 - Traitement de données avec R
…
n’ont pas de noms de lignes (rownames)

autorisent des noms de colonnes invalides pour les data frames (espaces, caractères spéciaux, nombres…)1

s’affichent plus intelligemment que les data frames : seules les premières lignes sont affichées, ainsi que quelques informations supplémentaires utiles (dimensions, types des colonnes…)

ne font pas de partial matching sur les noms de colonnes2

affichent un avertissement si on essaie d’accéder à une colonne qui n’existe pas

Pour autant, les tibbles restent compatibles avec les data frames. On peut ainsi facilement convertir un data frame en tibble avec as_tibble :

as_tibble(mtcars)

# A tibble: 32 × 11
     mpg   cyl  disp    hp  drat    wt  qsec    vs    am  gear  carb
   <dbl> <dbl> <dbl> <dbl> <dbl> <dbl> <dbl> <dbl> <dbl> <dbl> <dbl>
 1  21       6  160    110  3.9   2.62  16.5     0     1     4     4
 2  21       6  160    110  3.9   2.88  17.0     0     1     4     4
 3  22.8     4  108     93  3.85  2.32  18.6     1     1     4     1
 4  21.4     6  258    110  3.08  3.22  19.4     1     0     3     1
 5  18.7     8  360    175  3.15  3.44  17.0     0     0     3     2
 6  18.1     6  225    105  2.76  3.46  20.2     1     0     3     1
 7  14.3     8  360    245  3.21  3.57  15.8     0     0     3     4
 8  24.4     4  147.    62  3.69  3.19  20       1     0     4     2
 9  22.8     4  141.    95  3.92  3.15  22.9     1     0     4     2
10  19.2     6  168.   123  3.92  3.44  18.3     1     0     4     4
# ℹ 22 more rows
…
is.data.frame(as_tibble(mtcars)) #TRUE

[1] TRUE

is_tibble(as_tibble(mtcars)) #TRUE

[1] TRUE

Si le data frame d’origine a des rownames, on peut d’abord les convertir en colonnes avec rownames_to_columns :

d <- as_tibble(rownames_to_column(mtcars))
d

# A tibble: 32 × 12
   rowname       mpg   cyl  disp    hp  drat    wt  qsec    vs    am  gear  carb
   <chr>       <dbl> <dbl> <dbl> <dbl> <dbl> <dbl> <dbl> <dbl> <dbl> <dbl> <dbl>
 1 Mazda RX4    21       6  160    110  3.9   2.62  16.5     0     1     4     4
 2 Mazda RX4 …  21       6  160    110  3.9   2.88  17.0     0     1     4     4
 3 Datsun 710   22.8     4  108     93  3.85  2.32  18.6     1     1     4     1
 4 Hornet 4 D…  21.4     6  258    110  3.08  3.22  19.4     1     0     3     1
 5 Hornet Spo…  18.7     8  360    175  3.15  3.44  17.0     0     0     3     2
 6 Valiant      18.1     6  225    105  2.76  3.46  20.2     1     0     3     1
 7 Duster 360   14.3     8  360    245  3.21  3.57  15.8     0     0     3     4
 8 Merc 240D    24.4     4  147.    62  3.69  3.19  20       1     0     4     2
 9 Merc 230     22.8     4  141.    95  3.92  3.15  22.9     1     0     4     2
10 Merc 280     19.2     6  168.   123  3.92  3.44  18.3     1     0     4     4
# ℹ 22 more rows
…
